{
  "success": {
    "campaigns": {
      "getAll": {
        "success": true,
        "data": {
          "campaigns": [
            {
              "_id": "65a1b2c3d4e5f6g7h8i9j0k1",
              "title": "Help Save Lives - Medical Emergency Fund",
              "description": "Urgent medical fund for critical surgeries",
              "goalAmount": 50000.00,
              "currentAmount": 32500.50,
              "status": "ACTIVE",
              "createdBy": "65a1b2c3d4e5f6g7h8i9j0k2",
              "createdAt": "2024-01-15T10:30:00Z",
              "updatedAt": "2024-01-20T14:22:00Z",
              "imageUrl": "https://example.com/campaign-image.jpg",
              "category": "MEDICAL",
              "deadline": "2024-03-15T00:00:00Z"
            }
          ],
          "pagination": {
            "page": 1,
            "limit": 20,
            "total": 45,
            "totalPages": 3
          }
        }
      },
      "getById": {
        "success": true,
        "data": {
          "_id": "65a1b2c3d4e5f6g7h8i9j0k1",
          "title": "Help Save Lives - Medical Emergency Fund",
          "description": "Urgent medical fund for critical surgeries",
          "goalAmount": 50000.00,
          "currentAmount": 32500.50,
          "status": "ACTIVE",
          "createdBy": {
            "_id": "65a1b2c3d4e5f6g7h8i9j0k2",
            "name": "John Doe",
            "email": "john@example.com"
          },
          "createdAt": "2024-01-15T10:30:00Z",
          "updatedAt": "2024-01-20T14:22:00Z",
          "imageUrl": "https://example.com/campaign-image.jpg",
          "category": "MEDICAL",
          "deadline": "2024-03-15T00:00:00Z",
          "totalPledges": 127,
          "progressPercentage": 65.0
        }
      },
      "getTotals": {
        "success": true,
        "data": {
          "campaignId": "65a1b2c3d4e5f6g7h8i9j0k1",
          "totalRaised": 32500.50,
          "totalPledges": 127,
          "averagePledge": 255.91,
          "lastUpdated": "2024-01-20T14:22:00Z"
        }
      }
    },
    "pledges": {
      "create": {
        "success": true,
        "data": {
          "_id": "65a1b2c3d4e5f6g7h8i9j0k3",
          "campaignId": "65a1b2c3d4e5f6g7h8i9j0k1",
          "userId": "65a1b2c3d4e5f6g7h8i9j0k2",
          "amount": 100.00,
          "status": "PENDING",
          "idempotencyKey": "pledge-20240120-123456-abc123",
          "message": "Hope this helps!",
          "createdAt": "2024-01-20T14:30:00Z",
          "paymentId": null
        }
      },
      "createDuplicate": {
        "success": true,
        "data": {
          "_id": "65a1b2c3d4e5f6g7h8i9j0k3",
          "campaignId": "65a1b2c3d4e5f6g7h8i9j0k1",
          "amount": 100.00,
          "status": "CONFIRMED",
          "message": "Duplicate request - returning existing pledge"
        }
      },
      "getById": {
        "success": true,
        "data": {
          "_id": "65a1b2c3d4e5f6g7h8i9j0k3",
          "campaignId": "65a1b2c3d4e5f6g7h8i9j0k1",
          "userId": "65a1b2c3d4e5f6g7h8i9j0k2",
          "amount": 100.00,
          "status": "CONFIRMED",
          "idempotencyKey": "pledge-20240120-123456-abc123",
          "message": "Hope this helps!",
          "createdAt": "2024-01-20T14:30:00Z",
          "updatedAt": "2024-01-20T14:35:00Z",
          "payment": {
            "_id": "65a1b2c3d4e5f6g7h8i9j0k4",
            "status": "COMPLETED",
            "provider": "STRIPE"
          }
        }
      },
      "getUserPledges": {
        "success": true,
        "data": {
          "pledges": [
            {
              "_id": "65a1b2c3d4e5f6g7h8i9j0k3",
              "campaignId": "65a1b2c3d4e5f6g7h8i9j0k1",
              "campaign": {
                "title": "Help Save Lives",
                "imageUrl": "https://example.com/image.jpg"
              },
              "amount": 100.00,
              "status": "CONFIRMED",
              "createdAt": "2024-01-20T14:30:00Z"
            }
          ],
          "pagination": {
            "page": 1,
            "limit": 20,
            "total": 15
          }
        }
      }
    },
    "payments": {
      "process": {
        "success": true,
        "data": {
          "_id": "65a1b2c3d4e5f6g7h8i9j0k4",
          "pledgeId": "65a1b2c3d4e5f6g7h8i9j0k3",
          "amount": 100.00,
          "currency": "USD",
          "status": "AUTHORIZED",
          "paymentProvider": "STRIPE",
          "providerPaymentId": "pi_1234567890",
          "idempotencyKey": "payment-20240120-123456-xyz789",
          "createdAt": "2024-01-20T14:35:00Z",
          "stateHistory": [
            {
              "fromState": null,
              "toState": "AUTHORIZED",
              "timestamp": "2024-01-20T14:35:00Z"
            }
          ]
        }
      },
      "webhookSuccess": {
        "success": true,
        "data": {
          "message": "Webhook processed successfully",
          "paymentId": "65a1b2c3d4e5f6g7h8i9j0k4",
          "newStatus": "CAPTURED"
        }
      },
      "webhookDuplicate": {
        "success": true,
        "data": {
          "message": "Webhook already processed",
          "paymentId": "65a1b2c3d4e5f6g7h8i9j0k4",
          "status": "CAPTURED"
        }
      },
      "getById": {
        "success": true,
        "data": {
          "_id": "65a1b2c3d4e5f6g7h8i9j0k4",
          "pledgeId": "65a1b2c3d4e5f6g7h8i9j0k3",
          "amount": 100.00,
          "currency": "USD",
          "status": "COMPLETED",
          "paymentProvider": "STRIPE",
          "providerPaymentId": "pi_1234567890",
          "createdAt": "2024-01-20T14:35:00Z",
          "updatedAt": "2024-01-20T14:40:00Z",
          "stateHistory": [
            {
              "fromState": null,
              "toState": "AUTHORIZED",
              "timestamp": "2024-01-20T14:35:00Z"
            },
            {
              "fromState": "AUTHORIZED",
              "toState": "CAPTURED",
              "timestamp": "2024-01-20T14:38:00Z"
            },
            {
              "fromState": "CAPTURED",
              "toState": "COMPLETED",
              "timestamp": "2024-01-20T14:40:00Z"
            }
          ]
        }
      }
    },
    "users": {
      "register": {
        "success": true,
        "data": {
          "_id": "65a1b2c3d4e5f6g7h8i9j0k2",
          "email": "john.doe@example.com",
          "name": "John Doe",
          "phone": "+1234567890",
          "isRegistered": true,
          "createdAt": "2024-01-15T10:00:00Z",
          "token": "eyJhbGciOiJIUzI1NiIsInR5cCI6IkpXVCJ9..."
        }
      },
      "login": {
        "success": true,
        "data": {
          "_id": "65a1b2c3d4e5f6g7h8i9j0k2",
          "email": "john.doe@example.com",
          "name": "John Doe",
          "token": "eyJhbGciOiJIUzI1NiIsInR5cCI6IkpXVCJ9..."
        }
      },
      "getProfile": {
        "success": true,
        "data": {
          "_id": "65a1b2c3d4e5f6g7h8i9j0k2",
          "email": "john.doe@example.com",
          "name": "John Doe",
          "phone": "+1234567890",
          "isRegistered": true,
          "createdAt": "2024-01-15T10:00:00Z",
          "totalDonated": 1250.00,
          "totalPledges": 8
        }
      },
      "getDonationHistory": {
        "success": true,
        "data": {
          "donations": [
            {
              "_id": "65a1b2c3d4e5f6g7h8i9j0k5",
              "pledgeId": "65a1b2c3d4e5f6g7h8i9j0k3",
              "campaignId": "65a1b2c3d4e5f6g7h8i9j0k1",
              "campaign": {
                "title": "Help Save Lives",
                "imageUrl": "https://example.com/image.jpg"
              },
              "amount": 100.00,
              "donatedAt": "2024-01-20T14:30:00Z",
              "status": "COMPLETED"
            }
          ],
          "pagination": {
            "page": 1,
            "limit": 20,
            "total": 8
          },
          "summary": {
            "totalDonated": 1250.00,
            "totalDonations": 8
          }
        }
      }
    },
    "admin": {
      "getMetrics": {
        "success": true,
        "data": {
          "overview": {
            "totalCampaigns": 45,
            "activeCampaigns": 32,
            "totalPledges": 1523,
            "totalRaised": 125000.50,
            "totalUsers": 892
          },
          "recentActivity": {
            "pledgesLast24h": 127,
            "pledgesLast7d": 456,
            "newUsersLast24h": 23,
            "newUsersLast7d": 89
          },
          "topCampaigns": [
            {
              "campaignId": "65a1b2c3d4e5f6g7h8i9j0k1",
              "title": "Help Save Lives",
              "totalRaised": 32500.50,
              "pledges": 127
            }
          ]
        }
      },
      "getHealth": {
        "success": true,
        "data": {
          "status": "healthy",
          "services": {
            "campaign-service": "up",
            "pledge-service": "up",
            "payment-service": "up",
            "user-service": "up",
            "database": "up",
            "redis": "up",
            "rabbitmq": "up"
          },
          "timestamp": "2024-01-20T15:00:00Z"
        }
      }
    }
  },
  "errors": {
    "validationError": {
      "success": false,
      "error": {
        "code": "VALIDATION_ERROR",
        "message": "Invalid request data",
        "details": {
          "amount": "Amount must be greater than 0",
          "campaignId": "Campaign ID is required"
        }
      }
    },
    "notFound": {
      "success": false,
      "error": {
        "code": "NOT_FOUND",
        "message": "Campaign not found",
        "details": {
          "campaignId": "65a1b2c3d4e5f6g7h8i9j0k1"
        }
      }
    },
    "unauthorized": {
      "success": false,
      "error": {
        "code": "UNAUTHORIZED",
        "message": "Authentication required",
        "details": {}
      }
    },
    "forbidden": {
      "success": false,
      "error": {
        "code": "FORBIDDEN",
        "message": "Insufficient permissions",
        "details": {}
      }
    },
    "duplicateEntry": {
      "success": false,
      "error": {
        "code": "DUPLICATE_ENTRY",
        "message": "Idempotency key already used",
        "details": {
          "idempotencyKey": "pledge-20240120-123456-abc123",
          "existingPledgeId": "65a1b2c3d4e5f6g7h8i9j0k3"
        }
      }
    },
    "invalidStateTransition": {
      "success": false,
      "error": {
        "code": "INVALID_STATE_TRANSITION",
        "message": "Cannot transition from CAPTURED to AUTHORIZED",
        "details": {
          "currentState": "CAPTURED",
          "requestedState": "AUTHORIZED",
          "paymentId": "65a1b2c3d4e5f6g7h8i9j0k4"
        }
      }
    },
    "serviceUnavailable": {
      "success": false,
      "error": {
        "code": "SERVICE_UNAVAILABLE",
        "message": "Payment service temporarily unavailable",
        "details": {}
      }
    },
    "internalError": {
      "success": false,
      "error": {
        "code": "INTERNAL_ERROR",
        "message": "An unexpected error occurred",
        "details": {}
      }
    }
  }
}

